\relax 
\@writefile{toc}{\contentsline {section}{\numberline {1}Brendel oscillator}{1}\protected@file@percent }
\@writefile{toc}{\contentsline {subsection}{\numberline {1.1}Modified Brendel oscillator}{2}\protected@file@percent }
\@writefile{toc}{\contentsline {section}{\numberline {2}Identities}{2}\protected@file@percent }
